{
  "findAllConfigByCategory" : {
    "transaction" : "findAllConfigByCategory",
    "sampleCount" : 1166,
    "errorCount" : 130,
    "errorPct" : 11.149228,
    "meanResTime" : 3091.365351629505,
    "medianResTime" : 250.0,
    "minResTime" : 10.0,
    "maxResTime" : 25908.0,
    "pct1ResTime" : 12522.29999999985,
    "pct2ResTime" : 25057.399999999994,
    "pct3ResTime" : 25702.239999999998,
    "throughput" : 4.320550777587977,
    "receivedKBytesPerSec" : 5.391801189818915,
    "sentKBytesPerSec" : 3.1565484042494063
  },
  "getChildCheckInCheckOutByArea" : {
    "transaction" : "getChildCheckInCheckOutByArea",
    "sampleCount" : 1048,
    "errorCount" : 130,
    "errorPct" : 12.40458,
    "meanResTime" : 7894.565839694655,
    "medianResTime" : 5975.0,
    "minResTime" : 301.0,
    "maxResTime" : 25948.0,
    "pct1ResTime" : 21263.4,
    "pct2ResTime" : 25294.85,
    "pct3ResTime" : 25817.08,
    "throughput" : 3.928109597256321,
    "receivedKBytesPerSec" : 20.588347473012988,
    "sentKBytesPerSec" : 11.424677655128468
  },
  "Total" : {
    "transaction" : "Total",
    "sampleCount" : 7977,
    "errorCount" : 874,
    "errorPct" : 10.9565,
    "meanResTime" : 3867.063432368058,
    "medianResTime" : 305.0,
    "minResTime" : 10.0,
    "maxResTime" : 25948.0,
    "pct1ResTime" : 17448.2,
    "pct2ResTime" : 24884.899999999994,
    "pct3ResTime" : 25582.420000000002,
    "throughput" : 29.516021608821134,
    "receivedKBytesPerSec" : 55.424250750434766,
    "sentKBytesPerSec" : 36.084649244015026
  },
  "me" : {
    "transaction" : "me",
    "sampleCount" : 1136,
    "errorCount" : 122,
    "errorPct" : 10.739436,
    "meanResTime" : 3613.8512323943673,
    "medianResTime" : 247.5,
    "minResTime" : 31.0,
    "maxResTime" : 25707.0,
    "pct1ResTime" : 14296.100000000002,
    "pct2ResTime" : 24550.64999999998,
    "pct3ResTime" : 25434.149999999998,
    "throughput" : 4.236861440458298,
    "receivedKBytesPerSec" : 6.922432900431891,
    "sentKBytesPerSec" : 8.520234008738527
  },
  "getAllClassInfo" : {
    "transaction" : "getAllClassInfo",
    "sampleCount" : 1160,
    "errorCount" : 122,
    "errorPct" : 10.5172415,
    "meanResTime" : 3042.927586206891,
    "medianResTime" : 205.0,
    "minResTime" : 17.0,
    "maxResTime" : 25709.0,
    "pct1ResTime" : 11022.300000000003,
    "pct2ResTime" : 24607.300000000003,
    "pct3ResTime" : 25491.410000000003,
    "throughput" : 4.296598649534596,
    "receivedKBytesPerSec" : 6.059946116578574,
    "sentKBytesPerSec" : 3.758359095177068
  },
  "dismissChildCheckInByVPS" : {
    "transaction" : "dismissChildCheckInByVPS",
    "sampleCount" : 1170,
    "errorCount" : 126,
    "errorPct" : 10.769231,
    "meanResTime" : 3058.970940170936,
    "medianResTime" : 180.0,
    "minResTime" : 14.0,
    "maxResTime" : 25612.0,
    "pct1ResTime" : 11197.500000000002,
    "pct2ResTime" : 23640.000000000004,
    "pct3ResTime" : 25407.16,
    "throughput" : 4.3329321359133415,
    "receivedKBytesPerSec" : 4.014493739005648,
    "sentKBytesPerSec" : 2.9525911952596986
  },
  "getAllArea" : {
    "transaction" : "getAllArea",
    "sampleCount" : 1152,
    "errorCount" : 127,
    "errorPct" : 11.024305,
    "meanResTime" : 3562.7682291666674,
    "medianResTime" : 152.0,
    "minResTime" : 18.0,
    "maxResTime" : 25780.0,
    "pct1ResTime" : 14565.800000000007,
    "pct2ResTime" : 24807.849999999995,
    "pct3ResTime" : 25497.030000000002,
    "throughput" : 4.267630835114599,
    "receivedKBytesPerSec" : 8.948097272670863,
    "sentKBytesPerSec" : 3.734115479562049
  },
  "addClassesToArea" : {
    "transaction" : "addClassesToArea",
    "sampleCount" : 1145,
    "errorCount" : 117,
    "errorPct" : 10.218341,
    "meanResTime" : 3188.726637554584,
    "medianResTime" : 214.0,
    "minResTime" : 19.0,
    "maxResTime" : 25812.0,
    "pct1ResTime" : 10893.800000000001,
    "pct2ResTime" : 24866.4,
    "pct3ResTime" : 25620.62,
    "throughput" : 4.244859826943181,
    "receivedKBytesPerSec" : 3.85337027272761,
    "sentKBytesPerSec" : 2.772728189020457
  }
}